%YAML 1.1
%TAG !u! tag:unity3d.com,2011:
--- !u!1045 &1
EditorBuildSettings:
  m_ObjectHideFlags: 0
  serializedVersion: 2
  m_Scenes:
  - enabled: 1
    path: Assets/Scenes/GameStart.unity
    guid: 1a5159678b3814b27826d81f32e6db58
  - enabled: 1
    path: Assets/Scenes/Main.unity
    guid: 2cda990e2423bbf4892e6590ba056729
  - enabled: 1
    path: Assets/Scenes/GameOver.unity
    guid: c60f25ae177c748fbb31ca2aba97026e
  - enabled: 1
    path: Assets/Scenes/Leaderboard.unity
    guid: 8b872285f10bc4153ac983daaa9c4255
  m_configObjects: {}
